FSN Shop Code: FSN1392129430328 matched shop code: W3750000 in FLD, but we do not have that BMT shop code in our database
FSN Shop Code: FSN1392129431379 matched shop code: D7340000 in FLD, but we do not have that BMT shop code in our database
FSN Shop Code: FSN1392129433425 matched shop code: W7200000 in FLD, but we do not have that BMT shop code in our database
FSN Shop Code: FSN1392129433708 matched shop code: W4030000 in FLD, but we do not have that BMT shop code in our database
FSN Shop Code: FSN1392129434361 matched shop code: E3840000 in FLD, but we do not have that BMT shop code in our database
FSN Shop Code: FSN1392129434940 matched shop code: U4130000 in FLD, but we do not have that BMT shop code in our database
FSN Shop Code: FSN1392129435112 matched shop code: R1570000 in FLD, but we do not have that BMT shop code in our database
FSN Shop Code: FSN1392129435861 matched shop code: V5820000 in FLD, but we do not have that BMT shop code in our database
FSN Shop Code: FSN1392129436130 matched shop code: W5640000 in FLD, but we do not have that BMT shop code in our database
FSN Shop Code: FSN1392129436315 matched shop code: T5810000 in FLD, but we do not have that BMT shop code in our database
FSN Shop Code: FSN1392129436491 matched shop code: T6250000 in FLD, but we do not have that BMT shop code in our database
FSN Shop Code: FSN1392129436908 matched shop code: U4810000 in FLD, but we do not have that BMT shop code in our database
FSN Shop Code: FSN1392129437174 matched shop code: W9370000 in FLD, but we do not have that BMT shop code in our database
FSN Shop Code: FSN1392129437392 matched shop code: B1330000 in FLD, but we do not have that BMT shop code in our database
FSN Shop Code: FSN1392129437644 matched shop code: P0640000 in FLD, but we do not have that BMT shop code in our database
FSN Shop Code: FSN1392129437681 matched shop code: P0420000 in FLD, but we do not have that BMT shop code in our database
FSN Shop Code: FSN1392129437698 matched shop code: U9240000 in FLD, but we do not have that BMT shop code in our database
FSN Shop Code: FSN1392129437707 matched shop code: U9240000 in FLD, but we do not have that BMT shop code in our database
FSN Shop Code: FSN1392129437808 matched shop code: P0420000 in FLD, but we do not have that BMT shop code in our database
FSN Shop Code: FSN1392129437814 matched shop code: U9240000 in FLD, but we do not have that BMT shop code in our database
FSN Shop Code: FSN1392129438680 matched shop code: X1480000 in FLD, but we do not have that BMT shop code in our database
FSN Shop Code: FSN1392129438714 matched shop code: W1910000 in FLD, but we do not have that BMT shop code in our database
FSN Shop Code: FSN1392129439004 matched shop code: D7250000 in FLD, but we do not have that BMT shop code in our database
FSN Shop Code: FSN1392129439004 matched shop code: D7240000 in FLD, but we do not have that BMT shop code in our database
FSN Shop Code: FSN1392129439004 matched shop code: W6480000 in FLD, but we do not have that BMT shop code in our database
FSN Shop Code: FSN1392129439004 matched shop code: W6480000 in FLD, but we do not have that BMT shop code in our database
FSN Shop Code: FSN1392129439038 matched shop code: W6480000 in FLD, but we do not have that BMT shop code in our database
FSN Shop Code: FSN1392129439058 matched shop code: D7250000 in FLD, but we do not have that BMT shop code in our database
FSN Shop Code: FSN1392129439058 matched shop code: D7250000 in FLD, but we do not have that BMT shop code in our database
FSN Shop Code: FSN1392129439058 matched shop code: D7250000 in FLD, but we do not have that BMT shop code in our database
FSN Shop Code: FSN1392129439064 matched shop code: D7240000 in FLD, but we do not have that BMT shop code in our database
FSN Shop Code: FSN1392129439068 matched shop code: D7250000 in FLD, but we do not have that BMT shop code in our database
FSN Shop Code: FSN1392129439074 matched shop code: D7250000 in FLD, but we do not have that BMT shop code in our database
FSN Shop Code: FSN1392129439081 matched shop code: W9540000 in FLD, but we do not have that BMT shop code in our database
